Vignette for Purrr
…
We will import a dataset from Kaggle that contains information about NFL passing statistics from players since 2001.

# Lets import the passing_cleaned csv
passing_stats <- read.csv("passing_cleaned.csv")
passing_stats <- as_tibble(passing_stats)

# Lets extract the variables Age, G, Yds, TD, Cmp, Int, Rate
passing_stats <- passing_stats |> 
  select(Age, G, Yds, TD, Cmp, Int, Rate) |> 
  arrange(desc(Yds))

passing_stats

# A tibble: 2,350 × 7
     Age     G   Yds    TD   Cmp   Int  Rate
   <int> <int> <int> <int> <int> <int> <dbl>
 1    37    16  5477    55   450    10 115. 
 2    32    16  5476    46   468    14 111. 
 3    44    17  5316    43   485    12 102. 
 4    27    17  5250    41   435    12 105. 
 5    34    16  5235    39   401    12 106. 
 6    37    16  5208    37   471    15 102. 
 7    33    16  5177    43   422    19  96.3
 8    34    16  5162    39   446    12 105. 
 9    36    16  5129    34   452    16  96.5
10    25    16  5109    33   380    30  84.3
# ℹ 2,340 more rows
…
